-------------------------------------------------------------------------------
Test set: integrationTests.BingBangIntegrationTest
-------------------------------------------------------------------------------
Tests run: 4, Failures: 0, Errors: 0, Skipped: 0, Time elapsed: 0.05 sec
